{
  "HP": 5,
  "shipTexture": "C:\\Users\\johnn\\Documents\\prog56693-project-1-settings\\prog56693-project-1-settings\\Mainplayer\\player.png",
  "initProjTexture": "C:\\Users\\johnn\\Documents\\prog56693-project-1-settings\\prog56693-project-1-settings\\Mainplayer\\laserGreenShot.png",
  "projTexture": "C:\\Users\\johnn\\Documents\\prog56693-project-1-settings\\prog56693-project-1-settings\\Mainplayer\\laserGreen.png",
  "damage": 1
}